cl__1 = 0.02e+3;
Point(1) = {0e+3, 0e+3, 0e+3, cl__1};
Point(2) = {0e+3, 1e+3, 0e+3, cl__1};
Point(3) = {1e+3, 1e+3, 0e+3, cl__1};
Point(4) = {1e+3, 0e+3, 0e+3, cl__1};
Point(5) = {-0e+3, 0.05e+3, 0e+3, cl__1};
Point(6) = {1e+3, 0.05e+3, 0e+3, cl__1};
Point(7) = {-0e+3, 0.15e+3, 0e+3, cl__1};
Point(8) = {1e+3, 0.15e+3, 0e+3, cl__1};
Point(9) = {0.15e+3, 0.15e+3, 0e+3, cl__1};
Point(10) = {0.3e+3, 0.15e+3, 0e+3, cl__1};
Point(11) = {0.4e+3, 0.2e+3, 0e+3, cl__1};
Point(12) = {0.4e+3, 0.3e+3, 0e+3, cl__1};
Point(13) = {0.85e+3, 0.15e+3, 0e+3, cl__1};
Point(14) = {0.7e+3, 0.15e+3, 0e+3, cl__1};
Point(15) = {0.6e+3, 0.2e+3, 0e+3, cl__1};
Point(16) = {0.6e+3, 0.3e+3, 0e+3, cl__1};
Point(17) = {0.65e+3, 0.4e+3, 0e+3, cl__1};
Point(18) = {0.7e+3, 0.5e+3, 0e+3, cl__1};
Point(19) = {0.65e+3, 0.6e+3, 0e+3, cl__1};
Point(20) = {0.55e+3, 0.65e+3, 0e+3, cl__1};
Point(21) = {0.45e+3, 0.65e+3, 0e+3, cl__1};
Point(22) = {0.35e+3, 0.6e+3, 0e+3, cl__1};
Point(23) = {0.3e+3, 0.5e+3, 0e+3, cl__1};
Point(24) = {0.35e+3, 0.4e+3, 0e+3, cl__1};
Point(25) = {0e+3, 0.3e+3, 0e+3, cl__1};
Point(26) = {1e+3, 0.3e+3, 0e+3, cl__1};
Point(27) = {0e+3, 0.45e+3, 0e+3, cl__1};
Point(28) = {1e+3, 0.45e+3, 0e+3, cl__1};
Point(29) = {0e+3, 0.6e+3, 0e+3, cl__1};
Point(30) = {1e+3, 0.6e+3, 0e+3, cl__1};
Point(31) = {0e+3, 0.8e+3, 0e+3, cl__1};
Point(32) = {1e+3, 0.8e+3, 0e+3, cl__1};
Point(33) = {0.25e+3, 0.85e+3, 0e+3, cl__1};
Point(34) = {0.5e+3, 0.9e+3, 0e+3, cl__1};
Point(35) = {0.75e+3, 0.85e+3, 0e+3, cl__1};
Point(36) = {0.2e+3, 0.3e+3, 0e+3, cl__1};
Point(37) = {0.8e+3, 0.3e+3, 0e+3, cl__1};
Point(42) = {0.29e+3, 0.53e+3, 0e+3, cl__1};
Point(43) = {0.71e+3, 0.53e+3, 0e+3, cl__1};
Point(44) = {0.175e+3, 0.475e+3, 0e+3, cl__1};
Point(45) = {0.825e+3, 0.475e+3, 0e+3, cl__1};

Line(1) = {2, 31};
Line(2) = {31, 29};
Line(3) = {29, 27};
Line(4) = {27, 25};
Line(5) = {25, 7};
Line(6) = {7, 5};
Line(7) = {5, 1};
Line(8) = {1, 4};
Line(9) = {4, 6};
Line(10) = {6, 8};
Line(11) = {8, 26};
Line(12) = {26, 28};
Line(13) = {28, 30};
Line(14) = {30, 32};
Line(15) = {32, 3};
BSpline(17) = {7, 9, 10, 11, 12, 24};
BSpline(18) = {24, 23};
BSpline(20) = {18, 17};
BSpline(21) = {17, 16, 15, 14, 13, 8};
BSpline(22) = {25, 36, 24};
BSpline(23) = {26, 37, 17};
BSpline(26) = {31, 33, 34, 35, 32};
BSpline(27) = {23, 42, 22};
BSpline(28) = {22, 21, 20, 19};
BSpline(29) = {18, 43, 19};
BSpline(32) = {27, 44};
BSpline(33) = {44, 23};
BSpline(34) = {28, 45};
BSpline(35) = {45, 18};
BSpline(36) = {44, 22};
BSpline(37) = {45, 19};
Line(56) = {5, 6};
Line(61) = {2, 3};
Line Loop(41) = {17, -22, 5};
Plane Surface(41) = {41};
Line Loop(43) = {23, 21, 11};
Plane Surface(43) = {43};
Line Loop(45) = {34, 35, 20, -23, 12};
Plane Surface(45) = {45};
Line Loop(47) = {29, -37, 35};
Plane Surface(47) = {47};
Line Loop(49) = {18, -33, -32, 4, 22};
Plane Surface(49) = {49};
Line Loop(51) = {36, -27, -33};
Plane Surface(51) = {51};
Line Loop(53) = {3, 32, 36, 28, -37, -34, 13, 14, -26, 2};
Plane Surface(53) = {53};
Line Loop(58) = {8, 9, -56, 7};
Plane Surface(58) = {58};
Line Loop(60) = {6, 56, 10, -21, -20, 29, -28, -27, -18, -17};
Plane Surface(60) = {60};
Line Loop(63) = {26, 15, -61, 1};
Plane Surface(63) = {63};

Physical Surface(1) = {58}; // bottom layer
Physical Surface(2) = {60}; // salt dome
Physical Surface(3) = {41, 43}; // layer one
Physical Surface(4) = {45, 49}; // layer two
Physical Surface(5) = {47, 51}; // oil layer
Physical Surface(6) = {53}; // layer three
Physical Surface(7) = {63}; // top layer

